The Topics In Statistics Companion website ! – Linear Algebra Survival Kit For Data Science
…
Linear algebra is the branch of mathematics concerning linear equations such as \(a_1 x_1 + \cdots  a_n x_n = b,\) and linear maps such as \((x_{1},\ldots ,x_{n})\mapsto a_{1}x_{1}+\cdots +a_{n}x_{n},\) and their representations in vector spaces and through matrices.

Link between Data science and Linear Algebra

Data are organized in rectangular array, understood as matrices, and the mathematical concept associated with matrices are used to manipulate data.

Palmer penguins illustration

## install.packages('palmerpenguins")
library("palmerpenguins")
penguins_nona <- na.omit(penguins) ## remove_na for now
penguins_nona |> print(n=3)

# A tibble: 333 × 8
  species island    bill_length_mm bill_depth_mm flipper_length_mm body_mass_g
  <fct>   <fct>              <dbl>         <dbl>             <int>       <int>
1 Adelie  Torgersen           39.1          18.7               181        3750
2 Adelie  Torgersen           39.5          17.4               186        3800
3 Adelie  Torgersen           40.3          18                 195        3250
# ℹ 330 more rows
# ℹ 2 more variables: sex <fct>, year <int>
…
