The Topics In Statistics Companion website ! - Principal Component Analysis
…
\[
\newcommand\R{{\mathbb{R}}}
\newcommand\norm[1]{\lVert#1\rVert}
\] 

Introduction

The Example of Doubs River Characteristics

We measured the physico-chemical characteristics at 30 different sites along the Doubs River .

The first 4 rows (out of 30) of the doubs.env dataset

# A tibble: 30 × 11
    das   alt   pen   deb    pH   dur   pho   nit   amm   oxy   dbo
  <dbl> <int> <dbl> <dbl> <dbl> <int> <dbl> <dbl> <dbl> <dbl> <dbl>
1   0.3   934  48    0.84   7.9    45  0.01  0.2   0     12.2   2.7
2   2.2   932   3    1      8      40  0.02  0.2   0.1   10.3   1.9
3  10.2   914   3.7  1.8    8.3    52  0.05  0.22  0.05  10.5   3.5
4  18.5   854   3.2  2.53   8      72  0.1   0.21  0     11     1.3
# ℹ 26 more rows
…
nit: nitrate concentration (\(mg.L^{-1}\)),

amn: ammonium concentration (\(mg.L^{-1}\)),

oxy: dissolved oxygen concentration (\(mg.L^{-1}\)),

dbo: Biological Oxygen Demand (\(mg.L^{-1}\)).

The Example of Penguin Morphology

We measured the morphological characteristics of various penguins:

The first 6 rows (out of 333) of the penguins dataset

# A tibble: 333 × 4
  bill_length_mm bill_depth_mm flipper_length_mm body_mass_g
           <dbl>         <dbl>             <int>       <int>
1           39.1          18.7               181        3750
2           39.5          17.4               186        3800
3           40.3          18                 195        3250
4           36.7          19.3               193        3450
5           39.3          20.6               190        3650
6           38.9          17.8               181        3625
# ℹ 327 more rows
…
